<?xml version="1.0" encoding="UTF-8"?>
<session version="1.0">
<refactoring comment="Delete resource &apos;BoostTuto/src/cpp/test&apos;" deleteContents="false" description="Delete resource &apos;BoostTuto/src/cpp/test&apos;" element1="/BoostTuto/src/cpp/test" flags="7" id="org.eclipse.ltk.core.refactoring.delete.resources" resources="1" stamp="1365528647590"/>
</session>