<?xml version="1.0" encoding="UTF-8"?>
<session version="1.0">
<refactoring comment="Delete resource &apos;Cuda/src/cpp/core/21_curand/01_random.cpp&apos;" deleteContents="false" description="Delete resource &apos;Cuda/src/cpp/core/21_curand/01_random.cpp&apos;" element1="/Cuda/src/cpp/core/21_curand/01_random.cpp" flags="7" id="org.eclipse.ltk.core.refactoring.delete.resources" resources="1" stamp="1335442924421"/>
</session>