<?xml version="1.0" encoding="UTF-8"?>
<session version="1.0">
<refactoring comment="Move 1 resources to &apos;CudaImage&apos;" description="Move 1 resources to &apos;CudaImage&apos;" destination="/CudaImage" element1="/Cuda/cudaWin.mk" flags="7" id="org.eclipse.ltk.core.refactoring.move.resources" resources="1" stamp="1370277408476" updateReferences="true"/>
</session>