<?xml version="1.0" encoding="UTF-8"?>
<session version="1.0">
<refactoring comment="Delete resource &apos;Cuda_Image/src/cpp/core/06_convolution/01_imageAPI&apos;" deleteContents="false" description="Delete resource &apos;Cuda_Image/src/cpp/core/06_convolution/01_imageAPI&apos;" element1="/Cuda_Image/src/cpp/core/06_convolution/01_imageAPI" flags="7" id="org.eclipse.ltk.core.refactoring.delete.resources" resources="1" stamp="1411989165671"/>
</session>