<?xml version="1.0" encoding="UTF-8"?>
<session version="1.0">
<refactoring comment="Rename resource &apos;BilatToolsCPP/src/core/tools/header/Variateur.h&apos; to &apos;VariateurFloat.h&apos;" description="Rename resource &apos;Variateur.h&apos;" flags="7" id="org.eclipse.ltk.core.refactoring.rename.resource" input="src/core/tools/header/Variateur.h" name="VariateurFloat.h" stamp="1381787481885" updateReferences="true"/>
</session>