<?xml version="1.0" encoding="UTF-8"?>
<session version="1.0">
<refactoring comment="Move 1 resources to &apos;Tuto_CppTest&apos;" description="Move 1 resources to &apos;Tuto_CppTest&apos;" destination="/Tuto_CppTest" element1="/Tuto_Doxy/intelLinux.mk" flags="7" id="org.eclipse.ltk.core.refactoring.move.resources" resources="1" stamp="1391956900682" updateReferences="true"/>
</session>