<?xml version="1.0" encoding="UTF-8"?>
<session version="1.0">
<refactoring comment="Delete resource &apos;OpenMP/src/resources&apos;" deleteContents="false" description="Delete resource &apos;OpenMP/src/resources&apos;" element1="/OpenMP/src/resources" flags="7" id="org.eclipse.ltk.core.refactoring.delete.resources" resources="1" stamp="1369477540350"/>
</session>